%YAML 1.1
%TAG !u! tag:unity3d.com,2011:
--- !u!1001 &8813919452903849233
PrefabInstance:
  m_ObjectHideFlags: 0
  serializedVersion: 2
  m_Modification:
    m_TransformParent: {fileID: 0}
    m_Modifications:
    - target: {fileID: 4643168981873614203, guid: f5a6bfae412b8c84fa7b7f5612774546,
        type: 3}
      propertyPath: m_Name
      value: Lata Vidro
      objectReference: {fileID: 0}
    - target: {fileID: 1025086260574720238, guid: f5a6bfae412b8c84fa7b7f5612774546,
        type: 3}
      propertyPath: m_LocalPosition.x
      value: 0
      objectReference: {fileID: 0}
    - target: {fileID: 1025086260574720238, guid: f5a6bfae412b8c84fa7b7f5612774546,
        type: 3}
      propertyPath: m_LocalPosition.y
      value: 0
      objectReference: {fileID: 0}
    - target: {fileID: 1025086260574720238, guid: f5a6bfae412b8c84fa7b7f5612774546,
        type: 3}
      propertyPath: m_LocalPosition.z
      value: -1
      objectReference: {fileID: 0}
    - target: {fileID: 1025086260574720238, guid: f5a6bfae412b8c84fa7b7f5612774546,
        type: 3}
      propertyPath: m_LocalRotation.x
      value: 0
      objectReference: {fileID: 0}
    - target: {fileID: 1025086260574720238, guid: f5a6bfae412b8c84fa7b7f5612774546,
        type: 3}
      propertyPath: m_LocalRotation.y
      value: 0
      objectReference: {fileID: 0}
    - target: {fileID: 1025086260574720238, guid: f5a6bfae412b8c84fa7b7f5612774546,
        type: 3}
      propertyPath: m_LocalRotation.z
      value: 0
      objectReference: {fileID: 0}
    - target: {fileID: 1025086260574720238, guid: f5a6bfae412b8c84fa7b7f5612774546,
        type: 3}
      propertyPath: m_LocalRotation.w
      value: 1
      objectReference: {fileID: 0}
    - target: {fileID: 1025086260574720238, guid: f5a6bfae412b8c84fa7b7f5612774546,
        type: 3}
      propertyPath: m_RootOrder
      value: 0
      objectReference: {fileID: 0}
    - target: {fileID: 1025086260574720238, guid: f5a6bfae412b8c84fa7b7f5612774546,
        type: 3}
      propertyPath: m_LocalEulerAnglesHint.x
      value: 0
      objectReference: {fileID: 0}
    - target: {fileID: 1025086260574720238, guid: f5a6bfae412b8c84fa7b7f5612774546,
        type: 3}
      propertyPath: m_LocalEulerAnglesHint.y
      value: 0
      objectReference: {fileID: 0}
    - target: {fileID: 1025086260574720238, guid: f5a6bfae412b8c84fa7b7f5612774546,
        type: 3}
      propertyPath: m_LocalEulerAnglesHint.z
      value: 0
      objectReference: {fileID: 0}
    - target: {fileID: 7434670198861366076, guid: f5a6bfae412b8c84fa7b7f5612774546,
        type: 3}
      propertyPath: m_Sprite
      value: 
      objectReference: {fileID: 21300000, guid: 3924cd39c1bba2b499dc26e442be9ced,
        type: 3}
    - target: {fileID: 5073296794278458609, guid: f5a6bfae412b8c84fa7b7f5612774546,
        type: 3}
      propertyPath: m_SpriteTilingProperty.oldSize.y
      value: 5.06
      objectReference: {fileID: 0}
    m_RemovedComponents: []
  m_SourcePrefab: {fileID: 100100000, guid: f5a6bfae412b8c84fa7b7f5612774546, type: 3}
