%YAML 1.1
%TAG !u! tag:unity3d.com,2011:
--- !u!114 &11400000
MonoBehaviour:
  m_ObjectHideFlags: 0
  m_CorrespondingSourceObject: {fileID: 0}
  m_PrefabInstance: {fileID: 0}
  m_PrefabAsset: {fileID: 0}
  m_GameObject: {fileID: 0}
  m_Enabled: 1
  m_EditorHideFlags: 0
  m_Script: {fileID: 11500000, guid: 93dcf062157ee5b41a10b016b44461cd, type: 3}
  m_Name: PNT_COINF
  m_EditorClassIdentifier: Assembly-CSharp:Objeto:PontoMapa
  latitude: -10.939559
  longitude: -37.657155
  imagem: {fileID: 21300000, guid: 1f698670111a4b94798c2c68ee58a5d8, type: 3}
  ordem:
  - {fileID: 6324406845423051298, guid: 957002ea3cf2e59409b3812a7fb7f968, type: 3}
  - {fileID: 2934705138794066073, guid: 98b505c22cebd8c459a60423862077ff, type: 3}
  - {fileID: 2067415987298321155, guid: 323219fee5fad9240a8511ca0db3e2ee, type: 3}
  - {fileID: 656409193624862247, guid: ea66ac07f0627d84bb8bc7a4ccb403e6, type: 3}
  - {fileID: 865500812924226544, guid: d31ca01a31135cc488f34c291f82fc81, type: 3}
