%YAML 1.1
%TAG !u! tag:unity3d.com,2011:
--- !u!114 &11400000
MonoBehaviour:
  m_ObjectHideFlags: 0
  m_CorrespondingSourceObject: {fileID: 0}
  m_PrefabInstance: {fileID: 0}
  m_PrefabAsset: {fileID: 0}
  m_GameObject: {fileID: 0}
  m_Enabled: 1
  m_EditorHideFlags: 0
  m_Script: {fileID: 11500000, guid: 93dcf062157ee5b41a10b016b44461cd, type: 3}
  m_Name: RF_BXEQ
  m_EditorClassIdentifier: 
  latitude: -10.939658
  longitude: -37.657362
  imagem: {fileID: 0}
  ordem: []
