%YAML 1.1
%TAG !u! tag:unity3d.com,2011:
--- !u!1001 &5464975408311918679
PrefabInstance:
  m_ObjectHideFlags: 0
  serializedVersion: 2
  m_Modification:
    m_TransformParent: {fileID: 0}
    m_Modifications:
    - target: {fileID: 5176217389637069735, guid: e17378488a3a6a643a997ddc72df73ab,
        type: 3}
      propertyPath: m_Name
      value: Monstro Papel Variant
      objectReference: {fileID: 0}
    - target: {fileID: 7663252137181478765, guid: e17378488a3a6a643a997ddc72df73ab,
        type: 3}
      propertyPath: m_LocalPosition.x
      value: 0
      objectReference: {fileID: 0}
    - target: {fileID: 7663252137181478765, guid: e17378488a3a6a643a997ddc72df73ab,
        type: 3}
      propertyPath: m_LocalPosition.y
      value: 0
      objectReference: {fileID: 0}
    - target: {fileID: 7663252137181478765, guid: e17378488a3a6a643a997ddc72df73ab,
        type: 3}
      propertyPath: m_LocalPosition.z
      value: 0
      objectReference: {fileID: 0}
    - target: {fileID: 7663252137181478765, guid: e17378488a3a6a643a997ddc72df73ab,
        type: 3}
      propertyPath: m_LocalRotation.x
      value: -0
      objectReference: {fileID: 0}
    - target: {fileID: 7663252137181478765, guid: e17378488a3a6a643a997ddc72df73ab,
        type: 3}
      propertyPath: m_LocalRotation.y
      value: -0
      objectReference: {fileID: 0}
    - target: {fileID: 7663252137181478765, guid: e17378488a3a6a643a997ddc72df73ab,
        type: 3}
      propertyPath: m_LocalRotation.z
      value: -0
      objectReference: {fileID: 0}
    - target: {fileID: 7663252137181478765, guid: e17378488a3a6a643a997ddc72df73ab,
        type: 3}
      propertyPath: m_LocalRotation.w
      value: 1
      objectReference: {fileID: 0}
    - target: {fileID: 7663252137181478765, guid: e17378488a3a6a643a997ddc72df73ab,
        type: 3}
      propertyPath: m_RootOrder
      value: 0
      objectReference: {fileID: 0}
    - target: {fileID: 7663252137181478765, guid: e17378488a3a6a643a997ddc72df73ab,
        type: 3}
      propertyPath: m_LocalEulerAnglesHint.x
      value: 0
      objectReference: {fileID: 0}
    - target: {fileID: 7663252137181478765, guid: e17378488a3a6a643a997ddc72df73ab,
        type: 3}
      propertyPath: m_LocalEulerAnglesHint.y
      value: 0
      objectReference: {fileID: 0}
    - target: {fileID: 7663252137181478765, guid: e17378488a3a6a643a997ddc72df73ab,
        type: 3}
      propertyPath: m_LocalEulerAnglesHint.z
      value: 0
      objectReference: {fileID: 0}
    - target: {fileID: 8756991729313190622, guid: e17378488a3a6a643a997ddc72df73ab,
        type: 3}
      propertyPath: m_SpriteTilingProperty.border.x
      value: 0
      objectReference: {fileID: 0}
    - target: {fileID: 8756991729313190622, guid: e17378488a3a6a643a997ddc72df73ab,
        type: 3}
      propertyPath: m_SpriteTilingProperty.border.y
      value: 0
      objectReference: {fileID: 0}
    - target: {fileID: 8756991729313190622, guid: e17378488a3a6a643a997ddc72df73ab,
        type: 3}
      propertyPath: m_SpriteTilingProperty.border.z
      value: 0
      objectReference: {fileID: 0}
    - target: {fileID: 8756991729313190622, guid: e17378488a3a6a643a997ddc72df73ab,
        type: 3}
      propertyPath: m_SpriteTilingProperty.border.w
      value: 0
      objectReference: {fileID: 0}
    - target: {fileID: 8756991729313190622, guid: e17378488a3a6a643a997ddc72df73ab,
        type: 3}
      propertyPath: m_SpriteTilingProperty.oldSize.x
      value: 5.26
      objectReference: {fileID: 0}
    - target: {fileID: 8756991729313190622, guid: e17378488a3a6a643a997ddc72df73ab,
        type: 3}
      propertyPath: m_SpriteTilingProperty.oldSize.y
      value: 7.6
      objectReference: {fileID: 0}
    - target: {fileID: 9167222691793928548, guid: e17378488a3a6a643a997ddc72df73ab,
        type: 3}
      propertyPath: m_Sprite
      value: 
      objectReference: {fileID: 21300000, guid: f541b212793901a478e6decc7d7424ae,
        type: 3}
    - target: {fileID: 8439512891189776292, guid: e17378488a3a6a643a997ddc72df73ab,
        type: 3}
      propertyPath: tipoLata
      value: 3
      objectReference: {fileID: 0}
    - target: {fileID: 8480183516786938922, guid: e17378488a3a6a643a997ddc72df73ab,
        type: 3}
      propertyPath: m_Controller
      value: 
      objectReference: {fileID: 22100000, guid: 9077afbf7f5828247be39e8519b292d5,
        type: 2}
    m_RemovedComponents: []
  m_SourcePrefab: {fileID: 100100000, guid: e17378488a3a6a643a997ddc72df73ab, type: 3}
