%YAML 1.1
%TAG !u! tag:unity3d.com,2011:
--- !u!221 &22100000
AnimatorOverrideController:
  m_ObjectHideFlags: 0
  m_CorrespondingSourceObject: {fileID: 0}
  m_PrefabInstance: {fileID: 0}
  m_PrefabAsset: {fileID: 0}
  m_Name: OC_MMETAL
  m_Controller: {fileID: 9100000, guid: 6228f31f5b83db04885a9b57017d54e6, type: 2}
  m_Clips:
  - m_OriginalClip: {fileID: 7400000, guid: 678096a16e5c1bb4fb480c8b385f58b9, type: 2}
    m_OverrideClip: {fileID: 7400000, guid: 0e1812d12d69316419ae43b985b6406b, type: 2}
